Sociometrics - Exploring Wearable Sensor Data
…
Reading and parsing Sociometric data files

The Humanyze (Sociometric Solutions) Datalab exports a variety of data sheets in relatively non-standard formats. The three functions read_interaction, read_body and read_audio provide the means to read the data sheets either from CSV, XLXS or XLS files and parse them into tidy based data frames.

df1 <- read_interaction(file="../data/datalab-full.xlsx", type="IR_BT")

class(df1)
#> [1] "interact"   "smtrx"      "tbl_df"     "tbl"        "data.frame"

The class() indicates the resulting data frame as containing smtrx data in general (expect a timestamp column) and more specifically interaction data.

The type parameter of the read_ functions indicates which specific sheet(s) will be imported. Interaction comprises Bluetooth sensors (BT) and/or Infrared (IR) detects which exist - if exported - in separate sheets. Which sheet has been imported is indicated in the Source column (check the documentation of each read-function for details). As the resulting dataset shows, interaction data is timestamped, and has two columns “Badge.ID” and “Other.ID”, i.e. the badges involved in the dyadic interaction. Furthermore, we have a specific Radio Signal Strength Indicator (RSSI) column (which is NA for Infrared detects).

df1
#> # A tibble: 3,732 x 5
#>    Timestamp           Badge.ID Other.ID  RSSI Source
#>    <dttm>              <chr>    <chr>    <dbl> <chr> 
#>  1 2016-01-18 09:11:27 3119     3180       -90 IR_BT 
#>  2 2016-01-18 09:11:38 3180     3119       -87 IR_BT 
#>  3 2016-01-18 09:11:54 3119     3180       -82 IR_BT 
#>  4 2016-01-18 09:12:32 3180     3119       -85 IR_BT 
#>  5 2016-01-18 09:12:56 3180     3119       -86 IR_BT 
#>  6 2016-01-18 09:13:24 3119     3180       -84 IR_BT 
#>  7 2016-01-18 09:13:53 3119     3180       -88 IR_BT 
#>  8 2016-01-18 09:14:14 3180     3119       -91 IR_BT 
#>  9 2016-01-18 09:14:18 3119     3180       -89 IR_BT 
#> 10 2016-01-18 09:14:45 3119     3180       -87 IR_BT 
#> # ... with 3,722 more rows
…
Anonymizing badge IDs

A common tasks before analyzing sensor data is anoymization. Badge IDs can be replaced while reading the data into R. The following code reads only the front microphone volume data. Note the replv=T parameter which replaces the Badge.IDs with arbitrary numbers starting from 1…n

df2 <- read_audio(file="../data/datalab-full.xlsx", type="VOL_F", replv=T)
class(df2)
#> [1] "vol"        "ego"        "smtrx"      "tbl_df"     "tbl"       
#> [6] "data.frame"

Note how the class(df2) is now different: apart from a smtrx data frame, it also is marked as ego based (only one Badge.ID per measurement) while also indicating that it is the vol (volume measure).

df2[which(df2$Badge.ID==2),]
#> # A tibble: 211 x 4
#>    Timestamp           Badge.ID   Volume Source
#>    <dttm>              <chr>       <dbl> <chr> 
#>  1 2016-01-18 09:00:00 2        NA       VOL_F 
#>  2 2016-01-18 09:01:00 2        NA       VOL_F 
#>  3 2016-01-18 09:02:00 2        NA       VOL_F 
#>  4 2016-01-18 09:03:00 2        NA       VOL_F 
#>  5 2016-01-18 09:04:00 2        NA       VOL_F 
#>  6 2016-01-18 09:05:00 2        NA       VOL_F 
#>  7 2016-01-18 09:06:00 2        NA       VOL_F 
#>  8 2016-01-18 09:07:00 2         0.0141  VOL_F 
#>  9 2016-01-18 09:08:00 2         0.0172  VOL_F 
#> 10 2016-01-18 09:09:00 2         0.00203 VOL_F 
#> # ... with 201 more rows

The Badge.IDs have now been anonymized with an arbitray number. For further details see anonymize() in the package documentation.

unique_ids(df2, cols="Badge.ID")
#>  [1] "1"  "2"  "3"  "4"  "5"  "6"  "7"  "8"  "9"  "10" "11" "12"

Undirected edges

For many dyadic measures such as Bluetooth or Infrared, detects are directed: Badge A->B is different from B->A. Either during data import or at a later point in time, an extra column can be added to the data frame converting directed to undirected detects.

df3 <- read_interaction(file="../data/datalab-full.xlsx", type="BT", undirect=T)
df3
#> # A tibble: 3,341 x 6
#>    Timestamp           Badge.ID Other.ID  RSSI Source Pairs    
#>    <dttm>              <chr>    <chr>    <dbl> <chr>  <chr>    
#>  1 2016-01-18 09:11:27 3119     3180       -90 BT     3119-3180
#>  2 2016-01-18 09:11:38 3180     3119       -87 BT     3119-3180
#>  3 2016-01-18 09:11:54 3119     3180       -82 BT     3119-3180
#>  4 2016-01-18 09:12:32 3180     3119       -85 BT     3119-3180
#>  5 2016-01-18 09:12:56 3180     3119       -86 BT     3119-3180
#>  6 2016-01-18 09:13:24 3119     3180       -84 BT     3119-3180
#>  7 2016-01-18 09:13:53 3119     3180       -88 BT     3119-3180
#>  8 2016-01-18 09:14:14 3180     3119       -91 BT     3119-3180
#>  9 2016-01-18 09:14:18 3119     3180       -89 BT     3119-3180
#> 10 2016-01-18 09:14:45 3119     3180       -87 BT     3119-3180
#> # ... with 3,331 more rows
…
